PogBlog - Quant
…
The following object is masked from 'package:mosaic':

    n_missing

library(crosstable) # Fast stats for multiple variables in table form

Attaching package: 'crosstable'

The following object is masked from 'package:purrr':

    compact

(diamonds)

# A tibble: 53,940 × 10
   carat cut       color clarity depth table price     x     y     z
   <dbl> <ord>     <ord> <ord>   <dbl> <dbl> <int> <dbl> <dbl> <dbl>
 1  0.23 Ideal     E     SI2      61.5    55   326  3.95  3.98  2.43
 2  0.21 Premium   E     SI1      59.8    61   326  3.89  3.84  2.31
 3  0.23 Good      E     VS1      56.9    65   327  4.05  4.07  2.31
 4  0.29 Premium   I     VS2      62.4    58   334  4.2   4.23  2.63
 5  0.31 Good      J     SI2      63.3    58   335  4.34  4.35  2.75
 6  0.24 Very Good J     VVS2     62.8    57   336  3.94  3.96  2.48
 7  0.24 Very Good I     VVS1     62.3    57   336  3.95  3.98  2.47
 8  0.26 Very Good H     SI1      61.9    55   337  4.07  4.11  2.53
 9  0.22 Fair      E     VS2      65.1    61   337  3.87  3.78  2.49
10  0.23 Very Good H     VS1      59.4    61   338  4     4.05  2.39
# ℹ 53,930 more rows
…
rank_df <- read_csv("https://raw.githubusercontent.com/rfordatascience/tidytuesday/master/data/2021/2021-10-26/ultra_rankings.csv")

Rows: 137803 Columns: 8
── Column specification ────────────────────────────────────────────────────────
Delimiter: ","
chr (4): runner, time, gender, nationality
dbl (4): race_year_id, rank, age, time_in_seconds

ℹ Use `spec()` to retrieve the full column specification for this data.
ℹ Specify the column types or set `show_col_types = FALSE` to quiet this message.

(race_df)

# A tibble: 1,207 × 13
   race_year_id event    race  city  country date       start_time participation
          <dbl> <chr>    <chr> <chr> <chr>   <date>     <time>     <chr>        
 1        68140 Peak Di… Mill… Cast… United… 2021-09-03 19:00      solo         
 2        72496 UTMB®    UTMB® Cham… France  2021-08-27 17:00      Solo         
 3        69855 Grand R… Ultr… viel… France  2021-08-20 05:00      solo         
 4        67856 Persenk… PERS… Asen… Bulgar… 2021-08-20 18:00      solo         
 5        70469 Runfire… 100 … uluk… Turkey  2021-08-20 18:00      solo         
 6        66887 Swiss A… 160KM Müns… Switze… 2021-08-15 17:00      solo         
 7        67851 Salomon… Salo… Foll… Norway  2021-08-14 07:00      solo         
 8        68241 Ultra T… 160KM Spa   Belgium 2021-08-14 07:00      solo         
 9        70241 Québec … QMT-… Beau… Canada  2021-08-13 22:00      solo         
10        69945 Bunketo… BBUT… LIND… Sweden  2021-08-07 10:00      solo         
# ℹ 1,197 more rows
# ℹ 5 more variables: distance <dbl>, elevation_gain <dbl>,
#   elevation_loss <dbl>, aid_stations <dbl>, participants <dbl>
…
(rank_df)

# A tibble: 137,803 × 8
   race_year_id  rank runner      time    age gender nationality time_in_seconds
          <dbl> <dbl> <chr>       <chr> <dbl> <chr>  <chr>                 <dbl>
 1        68140     1 VERHEUL Ja… 26H …    30 M      GBR                   95725
 2        68140     2 MOULDING J… 27H …    43 M      GBR                   97229
 3        68140     3 RICHARDSON… 28H …    38 M      GBR                  103747
 4        68140     4 DYSON Fiona 30H …    55 W      GBR                  111217
 5        68140     5 FRONTERAS … 32H …    48 W      GBR                  117981
 6        68140     6 THOMAS Lei… 32H …    31 M      GBR                  118000
 7        68140     7 SHORT Debo… 33H …    55 W      GBR                  120601
 8        68140     8 CROSSLEY C… 33H …    40 W      GBR                  120803
 9        68140     9 BUTCHER Ke… 34H …    47 M      GBR                  125656
10        68140    10 Hendry Bill 34H …    29 M      GBR                  125979
# ℹ 137,793 more rows
…
#Without using the Flex_table command

#Which countries host the maximum number of races? 

race_df %>%
  count(country) %>%
  arrange(desc(n))

# A tibble: 61 × 2
   country            n
   <chr>          <int>
 1 United States    438
 2 United Kingdom   110
 3 France            56
 4 Australia         46
 5 Sweden            46
 6 China             45
 7 Canada            32
 8 Spain             27
 9 Japan             24
10 Poland            23
# ℹ 51 more rows

#Which countries send the maximum number of participants??

rank_df %>%
  count(nationality) %>%
  arrange(desc(n))

# A tibble: 133 × 2
   nationality     n
   <chr>       <int>
 1 USA         47259
 2 FRA         28905
 3 GBR         11076
 4 JPN          6729
 5 ESP          5478
 6 CHN          4744
 7 CAN          2822
 8 ITA          2794
 9 SWE          2293
10 AUS          1683
# ℹ 123 more rows

#Which countries have the maximum number of winners (top 3 ranks)?

rank_df %>%
  filter(rank %in% c(1, 2, 3)) %>%
  count(nationality) %>%
  arrange(desc(n))

# A tibble: 69 × 2
   nationality     n
   <chr>       <int>
 1 USA          1240
 2 GBR           347
 3 FRA           210
 4 AUS           140
 5 CAN           132
 6 CHN           128
 7 SWE           124
 8 ESP           113
 9 JPN            94
10 ITA            79
# ℹ 59 more rows
…
#The races with 0 distance were probably cancelled

#For all races that have a distance around 150, what is the distribution of finishing times? Can these be split/facetted using start_time of the race (i.e. morning / evening) ?

race_times <- race_df %>%
  count(start_time) %>%
  arrange(desc(n))
race_times

# A tibble: 39 × 2
   start_time     n
   <time>     <int>
 1 00:00        513
 2 06:00        114
 3 08:00         63
 4 10:00         60
 5 07:00         58
 6 18:00         50
 7 05:00         48
 8 12:00         38
 9 04:00         30
10 09:00         27
# ℹ 29 more rows
…
