PogBlog - Data Summaries
…
The following object is masked from 'package:dplyr':

    group_rows

library(skimr)

Attaching package: 'skimr'

The following object is masked from 'package:mosaic':

    n_missing

mpg

# A tibble: 234 × 11
   manufacturer model      displ  year   cyl trans drv     cty   hwy fl    class
   <chr>        <chr>      <dbl> <int> <int> <chr> <chr> <int> <int> <chr> <chr>
 1 audi         a4           1.8  1999     4 auto… f        18    29 p     comp…
 2 audi         a4           1.8  1999     4 manu… f        21    29 p     comp…
 3 audi         a4           2    2008     4 manu… f        20    31 p     comp…
 4 audi         a4           2    2008     4 auto… f        21    30 p     comp…
 5 audi         a4           2.8  1999     6 auto… f        16    26 p     comp…
 6 audi         a4           2.8  1999     6 manu… f        18    26 p     comp…
 7 audi         a4           3.1  2008     6 auto… f        18    27 p     comp…
 8 audi         a4 quattro   1.8  1999     4 manu… 4        18    26 p     comp…
 9 audi         a4 quattro   1.8  1999     4 auto… 4        16    25 p     comp…
10 audi         a4 quattro   2    2008     4 manu… 4        20    28 p     comp…
# ℹ 224 more rows
…
mpg_modified %>% filter(class=='suv') 

# A tibble: 62 × 11
   manufacturer model      displ  year cyl   trans drv     cty   hwy fl    class
   <chr>        <chr>      <dbl> <int> <fct> <fct> <fct> <int> <int> <fct> <fct>
 1 chevrolet    c1500 sub…   5.3  2008 8     auto… r        14    20 r     suv  
 2 chevrolet    c1500 sub…   5.3  2008 8     auto… r        11    15 e     suv  
 3 chevrolet    c1500 sub…   5.3  2008 8     auto… r        14    20 r     suv  
 4 chevrolet    c1500 sub…   5.7  1999 8     auto… r        13    17 r     suv  
 5 chevrolet    c1500 sub…   6    2008 8     auto… r        12    17 r     suv  
 6 chevrolet    k1500 tah…   5.3  2008 8     auto… 4        14    19 r     suv  
 7 chevrolet    k1500 tah…   5.3  2008 8     auto… 4        11    14 e     suv  
 8 chevrolet    k1500 tah…   5.7  1999 8     auto… 4        11    15 r     suv  
 9 chevrolet    k1500 tah…   6.5  1999 8     auto… 4        14    17 d     suv  
10 dodge        durango 4…   3.9  1999 6     auto… 4        13    17 r     suv  
# ℹ 52 more rows
…
mpg_modified %>%
  group_by(manufacturer,cyl, fl) %>%
  summarize(average_hwy = mean(hwy), count = n())

`summarise()` has grouped output by 'manufacturer', 'cyl'. You can override
using the `.groups` argument.

# A tibble: 51 × 5
# Groups:   manufacturer, cyl [32]
   manufacturer cyl   fl    average_hwy count
   <chr>        <fct> <fct>       <dbl> <int>
 1 audi         4     p            28.1     8
 2 audi         6     p            25.3     9
 3 audi         8     p            23       1
 4 chevrolet    4     r            28.5     2
 5 chevrolet    6     r            27       3
 6 chevrolet    8     p            24.8     5
 7 chevrolet    8     r            18       6
 8 chevrolet    8     e            14.5     2
 9 chevrolet    8     d            17       1
10 dodge        4     r            24       1
# ℹ 41 more rows
…
Rows: 599 Columns: 1
── Column specification ────────────────────────────────────────────────────────
Delimiter: ","
chr (1): Age;Gender;Grade;AMAS;RCMAS;Arith

ℹ Use `spec()` to retrieve the full column specification for this data.
ℹ Specify the column types or set `show_col_types = FALSE` to quiet this message.

math_ax

# A tibble: 599 × 1
   `Age;Gender;Grade;AMAS;RCMAS;Arith`
   <chr>                              
 1 137,8;Boy;Secondary;9;20;6         
 2 140,7;Boy;Secondary;18;8;6         
 3 137,9;Girl;Secondary;23;26;5       
 4 142,8;Girl;Secondary;19;18;7       
 5 135,6;Boy;Secondary;23;20;1        
 6 135,0;Girl;Secondary;27;33;1       
 7 133,6;Boy;Secondary;22;23;4        
 8 139,3;Boy;Secondary;17;11;7        
 9 131,7;Girl;Secondary;28;32;2       
10 134,8;Boy;Secondary;20;30;6        
# ℹ 589 more rows
math_ax <- read_delim(file = '../../datasets/MathAnxiety.csv', delim = ';')

Rows: 599 Columns: 6
── Column specification ────────────────────────────────────────────────────────
Delimiter: ";"
chr (2): Gender, Grade
dbl (3): AMAS, RCMAS, Arith
num (1): Age

ℹ Use `spec()` to retrieve the full column specification for this data.
ℹ Specify the column types or set `show_col_types = FALSE` to quiet this message.

math_ax

# A tibble: 599 × 6
     Age Gender Grade      AMAS RCMAS Arith
   <dbl> <chr>  <chr>     <dbl> <dbl> <dbl>
 1  1378 Boy    Secondary     9    20     6
 2  1407 Boy    Secondary    18     8     6
 3  1379 Girl   Secondary    23    26     5
 4  1428 Girl   Secondary    19    18     7
 5  1356 Boy    Secondary    23    20     1
 6  1350 Girl   Secondary    27    33     1
 7  1336 Boy    Secondary    22    23     4
 8  1393 Boy    Secondary    17    11     7
 9  1317 Girl   Secondary    28    32     2
10  1348 Boy    Secondary    20    30     6
# ℹ 589 more rows
…
