PogBlog - Inference
…
set.seed(40)  # for replication
# Data as individual vectors ( for t.tests etc)
y <- rnorm(50, mean = 2, sd = 2)

# And as tibble too
mydata <- tibble(y = y)

x <- rnorm(500, mean = 2, sd = 2)

# And as tibble too
mydata2 <- tibble(x = x)

mydata

# A tibble: 50 × 1
        y
    <dbl>
 1  2.96 
 2  2.99 
 3  0.281
 4  0.342
 5  1.36 
 6 -0.608
 7 -0.843
 8  5.49 
 9  1.42 
10 -0.618
# ℹ 40 more rows

mydata2

# A tibble: 500 × 1
       x
   <dbl>
 1  3.83
 2  3.15
 3  1.03
 4  2.03
 5  4.03
 6  2.12
 7  6.54
 8  3.42
 9  5.14
10  3.77
# ℹ 490 more rows
…
  broom::tidy() # Make results presentable, and plottable!!
t1

# A tibble: 1 × 8
  estimate statistic     p.value parameter conf.low conf.high method alternative
     <dbl>     <dbl>       <dbl>     <dbl>    <dbl>     <dbl> <chr>  <chr>      
1     2.05      6.79     1.43e-8        49     1.44      2.65 One S… two.sided  

Case Study 2: Exam Data

data("exam_grades")
exam_grades

# A tibble: 233 × 6
   semester sex   exam1 exam2 exam3 course_grade
   <chr>    <chr> <dbl> <dbl> <dbl>        <dbl>
 1 2000-1   Man    84.5  69.5  86.5         76.3
 2 2000-1   Man    80    74    67           75.4
 3 2000-1   Man    56    70    71.5         67.1
 4 2000-1   Man    64    61    67.5         63.5
 5 2000-1   Man    90.5  72.5  75           72.4
 6 2000-1   Man    74    78.5  84.5         71.4
 7 2000-1   Man    60.5  44    58           56.1
 8 2000-1   Man    89    82    88           78.0
 9 2000-1   Woman  87.5  86.5  95           82.9
10 2000-1   Man    91    98    88           89.1
# ℹ 223 more rows
…
NHANES_adult <-
  NHANES %>%
  distinct(ID, .keep_all = TRUE) %>%
  filter(Age >= 18) %>%
  select(Height) %>%
  drop_na(Height)
NHANES_adult

# A tibble: 4,790 × 1
   Height
    <dbl>
 1   165.
 2   168.
 3   167.
 4   170.
 5   182.
 6   169.
 7   148.
 8   178.
 9   181.
10   170.
# ℹ 4,780 more rows
…
pop_sd <- mosaic::sd(~Height, data = NHANES_adult)

pop_mean

[1] 168.3497

pop_sd

[1] 10.15705

sample_50 <- mosaic::sample(NHANES_adult, size = 50) %>%
  select(Height)
sample_50

# A tibble: 50 × 1
   Height
    <dbl>
 1   175.
 2   155.
 3   178.
 4   175.
 5   176.
 6   176.
 7   164.
 8   160.
 9   166.
10   181 
# ℹ 40 more rows
…
sample_50_500 <- do(500) * {
  sample(NHANES_adult, size = 50) %>%
    select(Height) %>% # drop sampling related column "orig.id"
    summarise(
      sample_mean = mean(Height),
      sample_sd = sd(Height),
      sample_min = min(Height),
      sample_max = max(Height)
    )
}
sample_50_500

# A tibble: 500 × 6
   sample_mean sample_sd sample_min sample_max  .row .index
         <dbl>     <dbl>      <dbl>      <dbl> <int>  <dbl>
 1        168.     10.2        150.       190.     1      1
 2        168.      9.36       152.       187.     1      2
 3        170.      9.57       153.       191.     1      3
 4        168.     10.4        140.       189      1      4
 5        171.     12.0        146.       194.     1      5
 6        169      10.1        140.       188.     1      6
 7        167.     10.3        144.       184.     1      7
 8        168.     11.2        148.       194.     1      8
 9        170.      9.89       148        190.     1      9
10        170.     10.8        145.       189.     1     10
# ℹ 490 more rows
…
