PogBlog - Day 3
…
New names:
Rows: 1884 Columns: 26
── Column specification
──────────────────────────────────────────────────────── Delimiter: "," chr
(13): Opening, Colour, ECO, Moves, moves_list, move1w, move1b, move2w, ... dbl
(12): ...1, Num Games, Perf Rating, Avg Player, Player Win %, Draw %, O... date
(1): Last Played
ℹ Use `spec()` to retrieve the full column specification for this data. ℹ
Specify the column types or set `show_col_types = FALSE` to quiet this message.
• `` -> `...1`

chesso

# A tibble: 1,884 × 26
    ...1 Opening            Colour `Num Games` ECO   `Last Played` `Perf Rating`
   <dbl> <chr>              <chr>        <dbl> <chr> <date>                <dbl>
 1     0 Alekhine Defense,… white          692 B03   2018-06-22             2247
 2     1 Alekhine Defense,… black          228 B02   2018-06-27             2145
 3     2 Alekhine Defense,… white         6485 B03   2018-07-06             2244
 4     3 Alekhine Defense,… white          881 B03   2018-06-20             2187
 5     4 Alekhine Defense,… black          259 B03   2018-05-20             2122
 6     5 Alekhine Defense,… white         1207 B03   2018-07-01             2243
 7     6 Alekhine Defense,… black          323 B03   2018-05-10             2231
 8     7 Alekhine Defense,… black          524 B02   2018-06-29             2032
 9     8 Alekhine Defense,… white          334 B02   2018-06-27             2205
10     9 Alekhine Defense,… white          931 B02   2018-07-09             2174
# ℹ 1,874 more rows
# ℹ 19 more variables: `Avg Player` <dbl>, `Player Win %` <dbl>,
#   `Draw %` <dbl>, `Opponent Win %` <dbl>, Moves <chr>, moves_list <chr>,
#   move1w <chr>, move1b <chr>, move2w <chr>, move2b <chr>, move3w <chr>,
#   move3b <chr>, move4w <chr>, move4b <chr>, `White_win%` <dbl>,
#   `Black_win%` <dbl>, White_odds <dbl>, White_Wins <dbl>, Black_Wins <dbl>
names(chesso)

 [1] "...1"           "Opening"        "Colour"         "Num Games"     
 [5] "ECO"            "Last Played"    "Perf Rating"    "Avg Player"    
 [9] "Player Win %"   "Draw %"         "Opponent Win %" "Moves"         
[13] "moves_list"     "move1w"         "move1b"         "move2w"        
[17] "move2b"         "move3w"         "move3b"         "move4w"        
[21] "move4b"         "White_win%"     "Black_win%"     "White_odds"    
[25] "White_Wins"     "Black_Wins"    

chesso_modified <-chesso %>% 
  select(-1)
chesso_modified

# A tibble: 1,884 × 25
   Opening     Colour `Num Games` ECO   `Last Played` `Perf Rating` `Avg Player`
   <chr>       <chr>        <dbl> <chr> <date>                <dbl>        <dbl>
 1 Alekhine D… white          692 B03   2018-06-22             2247         2225
 2 Alekhine D… black          228 B02   2018-06-27             2145         2193
 3 Alekhine D… white         6485 B03   2018-07-06             2244         2194
 4 Alekhine D… white          881 B03   2018-06-20             2187         2130
 5 Alekhine D… black          259 B03   2018-05-20             2122         2178
 6 Alekhine D… white         1207 B03   2018-07-01             2243         2190
 7 Alekhine D… black          323 B03   2018-05-10             2231         2277
 8 Alekhine D… black          524 B02   2018-06-29             2032         2077
 9 Alekhine D… white          334 B02   2018-06-27             2205         2178
10 Alekhine D… white          931 B02   2018-07-09             2174         2174
# ℹ 1,874 more rows
# ℹ 18 more variables: `Player Win %` <dbl>, `Draw %` <dbl>,
#   `Opponent Win %` <dbl>, Moves <chr>, moves_list <chr>, move1w <chr>,
#   move1b <chr>, move2w <chr>, move2b <chr>, move3w <chr>, move3b <chr>,
#   move4w <chr>, move4b <chr>, `White_win%` <dbl>, `Black_win%` <dbl>,
#   White_odds <dbl>, White_Wins <dbl>, Black_Wins <dbl>
…
## HOW TO FILTER OPENINGS WHICH INCLUDE A SPECIFIC NAME BUT NOT WHOLE NAME IS SAME?
## E.g. ALL OPENING VARIATIONS WITH WORDS 'NIMZO-INDIAN' IN THEM? 

#chesso_modified %>% filter(dplyr::contains(vars = Opening, "Nimzo-Indian Defense"))
#This does not work

#chesso_modified %>% select(contains('Nimzo-Indian Defense'))
#This does not work

chesso_modified %>% filter(grepl('Nimzo-Indian Defense', Opening))

# A tibble: 66 × 25
   Opening     Colour `Num Games` ECO   `Last Played` `Perf Rating` `Avg Player`
   <chr>       <chr>        <dbl> <chr> <date>                <dbl>        <dbl>
 1 Nimzo-Indi… white         9585 E32   2018-07-08             2352         2311
 2 Nimzo-Indi… black         4205 E38   2018-07-09             2246         2286
 3 Nimzo-Indi… white          380 E39   2018-06-26             2521         2475
 4 Nimzo-Indi… black         4742 E32   2018-07-08             2380         2411
 5 Nimzo-Indi… black         1913 E39   2018-06-20             2358         2381
 6 Nimzo-Indi… black         1483 E33   2018-07-09             2293         2327
 7 Nimzo-Indi… black         2253 E34   2018-07-08             2291         2328
 8 Nimzo-Indi… white          696 E37   2018-07-05             2475         2407
 9 Nimzo-Indi… white          760 E36   2018-07-05             2389         2350
10 Nimzo-Indi… black          924 E35   2018-07-08             2415         2466
# ℹ 56 more rows
# ℹ 18 more variables: `Player Win %` <dbl>, `Draw %` <dbl>,
#   `Opponent Win %` <dbl>, Moves <chr>, moves_list <chr>, move1w <chr>,
#   move1b <chr>, move2w <chr>, move2b <chr>, move3w <chr>, move3b <chr>,
#   move4w <chr>, move4b <chr>, `White_win%` <dbl>, `Black_win%` <dbl>,
#   White_odds <dbl>, White_Wins <dbl>, Black_Wins <dbl>

#HELL YES. YOU CAN NOW FILTER ROWS WITH A CERTAIN STRING IN A SPECIFIC COLUMN

chesso_vienna <- chesso_modified %>% filter(grepl('Vienna Game', Opening))

#HELL YES. YOU CAN NOW FILTER ROWS WITH A CERTAIN STRING IN A SPECIFIC COLUMN

(chesso_vienna) #Database of all variations under the Vienna Game

# A tibble: 21 × 25
   Opening     Colour `Num Games` ECO   `Last Played` `Perf Rating` `Avg Player`
   <chr>       <chr>        <dbl> <chr> <date>                <dbl>        <dbl>
 1 Vienna Gam… black          835 C25   2018-07-09             2167         2195
 2 Vienna Gam… black          188 C26   2018-07-01             2102         2053
 3 Vienna Gam… white          846 C27   2018-04-29             2154         2104
 4 Vienna Gam… white         2821 C26   2018-07-08             2293         2267
 5 Vienna Gam… white          133 C25   2018-07-07             2219         2154
 6 Vienna Gam… white         1012 C25   2018-07-03             2273         2228
 7 Vienna Gam… white          527 C26   2018-06-21             2053         2008
 8 Vienna Gam… white          100 C27   2018-03-02             2258         2231
 9 Vienna Gam… black          124 C27   2018-04-02             2206         2243
10 Vienna Gam… black          201 C27   2018-06-30             2103         2076
# ℹ 11 more rows
# ℹ 18 more variables: `Player Win %` <dbl>, `Draw %` <dbl>,
#   `Opponent Win %` <dbl>, Moves <chr>, moves_list <chr>, move1w <chr>,
#   move1b <chr>, move2w <chr>, move2b <chr>, move3w <chr>, move3b <chr>,
#   move4w <chr>, move4b <chr>, `White_win%` <dbl>, `Black_win%` <dbl>,
#   White_odds <dbl>, White_Wins <dbl>, Black_Wins <dbl>
