PogBlog - Grain
…
cartelstability <- read_csv("https://vincentarelbundock.github.io/Rdatasets/csv/AER/CartelStability.csv")

Rows: 328 Columns: 6
── Column specification ────────────────────────────────────────────────────────
Delimiter: ","
chr (3): cartel, season, ice
dbl (3): rownames, price, quantity

ℹ Use `spec()` to retrieve the full column specification for this data.
ℹ Specify the column types or set `show_col_types = FALSE` to quiet this message.

cartelstability

# A tibble: 328 × 6
   rownames price cartel quantity season          ice  
      <dbl> <dbl> <chr>     <dbl> <chr>           <chr>
 1        1  0.4  yes       13632 Jan  1 - Jan 28 yes  
 2        2  0.4  yes       20035 Jan  1 - Jan 28 yes  
 3        3  0.4  yes       16319 Jan  1 - Jan 28 yes  
 4        4  0.4  yes       12603 Jan  1 - Jan 28 yes  
 5        5  0.4  yes       23079 Jan 29 - Feb 25 yes  
 6        6  0.4  yes       19652 Jan 29 - Feb 25 yes  
 7        7  0.4  yes       16211 Jan 29 - Feb 25 yes  
 8        8  0.4  yes       22914 Jan 29 - Feb 25 yes  
 9        9  0.4  yes       23710 Feb 26 - Mar 26 yes  
10       10  0.35 yes       23036 Feb 26 - Mar 26 yes  
# ℹ 318 more rows
…
glimpse(cartelmod)

Rows: 328
Columns: 6
$ rownames <dbl> 1, 2, 3, 4, 5, 6, 7, 8, 9, 10, 11, 12, 13, 14, 15, 16, 17, 18…
$ price    <dbl> 0.40, 0.40, 0.40, 0.40, 0.40, 0.40, 0.40, 0.40, 0.40, 0.35, 0…
$ cartel   <fct> Cartel Operational, Cartel Operational, Cartel Operational, C…
$ quantity <dbl> 13632, 20035, 16319, 12603, 23079, 19652, 16211, 22914, 23710…
$ season   <ord> Jan  1 - Jan 28, Jan  1 - Jan 28, Jan  1 - Jan 28, Jan  1 - J…
$ ice      <fct> Frozen Lakes, Frozen Lakes, Frozen Lakes, Frozen Lakes, Froze…

cartelmod 

# A tibble: 328 × 6
   rownames price cartel             quantity season          ice         
      <dbl> <dbl> <fct>                 <dbl> <ord>           <fct>       
 1        1  0.4  Cartel Operational    13632 Jan  1 - Jan 28 Frozen Lakes
 2        2  0.4  Cartel Operational    20035 Jan  1 - Jan 28 Frozen Lakes
 3        3  0.4  Cartel Operational    16319 Jan  1 - Jan 28 Frozen Lakes
 4        4  0.4  Cartel Operational    12603 Jan  1 - Jan 28 Frozen Lakes
 5        5  0.4  Cartel Operational    23079 Jan 29 - Feb 25 Frozen Lakes
 6        6  0.4  Cartel Operational    19652 Jan 29 - Feb 25 Frozen Lakes
 7        7  0.4  Cartel Operational    16211 Jan 29 - Feb 25 Frozen Lakes
 8        8  0.4  Cartel Operational    22914 Jan 29 - Feb 25 Frozen Lakes
 9        9  0.4  Cartel Operational    23710 Feb 26 - Mar 26 Frozen Lakes
10       10  0.35 Cartel Operational    23036 Feb 26 - Mar 26 Frozen Lakes
# ℹ 318 more rows

cartel2 <- cartelmod %>% 
  group_by(season,cartel,ice) %>% 
  summarise(avg_price= mean(price), avg_haul= mean(quantity)) 

`summarise()` has grouped output by 'season', 'cartel'. You can override using
the `.groups` argument.

cartel2

# A tibble: 30 × 5
# Groups:   season, cartel [26]
   season          cartel               ice          avg_price avg_haul
   <ord>           <fct>                <fct>            <dbl>    <dbl>
 1 Apr 24 - May 21 Cartel Operational   Frozen Lakes     0.3     36457.
 2 Apr 24 - May 21 Cartel Operational   Fluid Lakes      0.27    14150.
 3 Apr 24 - May 21 Cartel Inoperational Frozen Lakes     0.186   45819.
 4 Apr 24 - May 21 Cartel Inoperational Fluid Lakes      0.2     29186 
 5 Aug 14 - Sep 10 Cartel Operational   Fluid Lakes      0.268   17011.
 6 Aug 14 - Sep 10 Cartel Inoperational Fluid Lakes      0.185   22766 
 7 Dec  4 - Dec 31 Cartel Operational   Frozen Lakes     0.286   25481.
 8 Dec  4 - Dec 31 Cartel Operational   Fluid Lakes      0.225   34980 
 9 Dec  4 - Dec 31 Cartel Inoperational Frozen Lakes     0.181   25642.
10 Feb 26 - Mar 26 Cartel Operational   Frozen Lakes     0.288   28736.
# ℹ 20 more rows
…
