PogBlog - Student Degrees
…
grad<- read_csv(file = '../../../datasets/degree.csv')

Rows: 90 Columns: 7
── Column specification ────────────────────────────────────────────────────────
Delimiter: ","
chr (4): Degree, Course, Letter Grade, Gender
dbl (3): SN, Year, Score

ℹ Use `spec()` to retrieve the full column specification for this data.
ℹ Specify the column types or set `show_col_types = FALSE` to quiet this message.

grad

# A tibble: 90 × 7
      SN Degree Course  Year `Letter Grade` Score Gender
   <dbl> <chr>  <chr>  <dbl> <chr>          <dbl> <chr> 
 1     1 B.Des  CAC        2 A                8   F     
 2     2 B.Des  CAC        2 O                9.6 F     
 3     3 B.Des  IADP       2 A+               9.2 F     
 4     4 B.Des  CE         2 O                9.8 F     
 5     5 B.Des  BSSD       2 P                3   M     
 6     6 B.Des  CAC        2 O                9.5 F     
 7     7 B.Des  PSD        2 A+               9   F     
 8     8 B.Des  PSD        2 A+               9   F     
 9     9 B.Des  PSD        2 A+               9   F     
10    10 B.Des  BSSD       3 A+               9   F     
# ℹ 80 more rows
…
Now we use infer command to generate a NULL distribution using permutation of the Degree factor.

null_dist_infer <- grad %>%
  specify(Score ~ Degree) %>%
  hypothesise(null = "independence") %>%
  generate(reps = 4999, type = "permute") %>%
  calculate(stat = "F")
##
null_dist_infer

Response: Score (numeric)
Explanatory: Degree (factor)
Null Hypothesis: independence
# A tibble: 4,999 × 2
   replicate   stat
       <int>  <dbl>
 1         1 1.61  
 2         2 0.665 
 3         3 1.53  
 4         4 0.194 
 5         5 0.644 
 6         6 0.759 
 7         7 0.216 
 8         8 1.66  
 9         9 0.0109
10        10 0.0365
# ℹ 4,989 more rows
…
