PogBlog - School Scores
…
head(inspect(score))

$categorical
# A tibble: 2 × 6
  name       class     levels     n missing distribution                        
  <chr>      <chr>      <int> <int>   <int> <chr>                               
1 State.Code character     53   577       0 "AK (1.9%), AL (1.9%), AR (1.9%) ..…
2 State.Name character     53   577       0 "Alabama (1.9%), Alaska (1.9%) ... …

$quantitative
# A tibble: 97 × 11
   name    class    min     Q1 median     Q3    max   mean      sd     n missing
 * <chr>   <chr>  <dbl>  <dbl>  <dbl>  <dbl>  <dbl>  <dbl>   <dbl> <int>   <int>
 1 Year    inte… 2.00e3 2.01e3 2.01e3 2.01e3 2.02e3 2.01e3 3.17e+0   577       0
 2 Total.… inte… 3.83e2 5.04e2 5.27e2 5.71e2 6.19e2 5.36e2 4.62e+1   577       0
 3 Total.… inte… 1.34e2 2.54e3 6.47e3 3.58e4 2.42e5 2.79e4 4.56e+4   577       0
 4 Total.… inte… 4.01e2 4.96e2 5.22e2 5.72e2 6.12e2 5.31e2 4.43e+1   577       0
 5 Academ… nume… 3.43e0 3.76e0 3.85e0 3.9 e0 3.96e0 3.82e0 9.32e-2   577       0
 6 Academ… nume… 1.2 e0 2.1 e0 2.3 e0 2.5 e0 3.1 e0 2.29e0 3.19e-1   577       0
 7 Academ… nume… 3.03e0 3.35e0 3.51e0 3.67e0 3.88e0 3.50e0 1.86e-1   577       0
 8 Academ… nume… 3.5 e0 3.9 e0 3.9 e0 4   e0 4.1 e0 3.93e0 9.30e-2   577       0
 9 Academ… nume… 3.03e0 3.3 e0 3.46e0 3.63e0 3.79e0 3.45e0 1.89e-1   577       0
10 Academ… nume… 1.8 e0 2.6 e0 2.8 e0 3.1 e0 3.6 e0 2.85e0 3.45e-1   577       0
# ℹ 87 more rows
…
