PogBlog - Cartoon Samples
…
toon<- read_csv(file = '../../../datasets/cartoon.csv')

Rows: 91 Columns: 4
── Column specification ────────────────────────────────────────────────────────
Delimiter: ","
chr (3): Participant ID, Gender, Cartoon
dbl (1): Rating

ℹ Use `spec()` to retrieve the full column specification for this data.
ℹ Specify the column types or set `show_col_types = FALSE` to quiet this message.

toon

# A tibble: 91 × 4
   `Participant ID` Gender Cartoon      Rating
   <chr>            <chr>  <chr>         <dbl>
 1 M1               Male   Chota Bheem     8.5
 2 M2               Male   Chota Bheem     6  
 3 M3               Male   Chota Bheem     8  
 4 M4               Male   Chota Bheem     7  
 5 M5               Male   Chota Bheem     8  
 6 M6               Male   Chota Bheem    10  
 7 M7               Male   Chota Bheem     5  
 8 M8               Male   Chota Bheem     7.8
 9 M9               Male   Chota Bheem     8.5
10 M10              Male   Chota Bheem     5  
# ℹ 81 more rows
…
Now we use infer command to generate a NULL distribution using permutation of the Cartoon factor.

null_dist_infer <- toon %>%
  specify(Rating ~ Cartoon) %>%
  hypothesise(null = "independence") %>%
  generate(reps = 4999, type = "permute") %>%
  calculate(stat = "F")
##
null_dist_infer

Response: Rating (numeric)
Explanatory: Cartoon (factor)
Null Hypothesis: independence
# A tibble: 4,999 × 2
   replicate    stat
       <int>   <dbl>
 1         1 1.32   
 2         2 1.79   
 3         3 0.279  
 4         4 0.769  
 5         5 1.17   
 6         6 0.130  
 7         7 0.00280
 8         8 0.219  
 9         9 2.68   
10        10 0.251  
# ℹ 4,989 more rows
…
