PogBlog - Tips by Food
…
Rows: 60 Columns: 4
── Column specification ────────────────────────────────────────────────────────
Delimiter: ","
chr (3): Name, Gender, Preferance
dbl (1): Tip

ℹ Use `spec()` to retrieve the full column specification for this data.
ℹ Specify the column types or set `show_col_types = FALSE` to quiet this message.

tips

# A tibble: 60 × 4
   Name     Gender Preferance   Tip
   <chr>    <chr>  <chr>      <int>
 1 Aanya    Female Veg            0
 2 Adit     Male   Veg            0
 3 Aditi    Female Veg           20
 4 Akash    Male   Non-veg        0
 5 Akshita  Female Non-veg        0
 6 Anandita Female Non-veg        0
 7 Ananya   Female Non-veg       20
 8 Anaya    Female Veg           35
 9 Anhuya   Female Veg           40
10 Ankit    Male   Non-veg        0
# ℹ 50 more rows
…
Taking average tips of each gender

tips%>%
  group_by(Gender) %>% 
  summarize(average_tip = mean(Tip),count = n())

# A tibble: 2 × 3
  Gender average_tip count
  <chr>        <dbl> <int>
1 Female        12.2    30
2 Male          10.2    30

tips %>% filter(Tip== 0) 

# A tibble: 36 × 4
   Name     Gender Preferance   Tip
   <chr>    <chr>  <chr>      <int>
 1 Aanya    Female Veg            0
 2 Adit     Male   Veg            0
 3 Akash    Male   Non-veg        0
 4 Akshita  Female Non-veg        0
 5 Anandita Female Non-veg        0
 6 Ankit    Male   Non-veg        0
 7 Anmol    Male   Veg            0
 8 Anna     Male   Veg            0
 9 Anoushka Female Non-veg        0
10 Arnav    Male   Non-veg        0
# ℹ 26 more rows
…
